{
 "actions": [],
 "autoname": "field:account_manager",
 "creation": "2019-10-15 18:15:37.047509",
 "description": "Buyer of  Services.",
 "doctype": "DocType",
 "engine": "InnoDB",
 "field_order": [
  "per_details",
  "account_manager",
  "first_name",
  "second_name",
  "full_name",
  "image",
  "cb_0",
  "disabled",
  "mobile_no",
  "email_id",
  "order_detail",
  "rating",
  "total_order",
  "cd_2",
  "total_feefback",
  "total_rating",
  "cus_add_details",
  "customer_details"
 ],
 "fields": [
  {
   "fieldname": "image",
   "fieldtype": "Text",
   "hidden": 1,
   "label": "Image",
   "print_hide": 1
  },
  {
   "fieldname": "account_manager",
   "fieldtype": "Link",
   "label": "Account Manager",
   "options": "User",
   "read_only": 1,
   "reqd": 1,
   "set_only_once": 1,
   "unique": 1
  },
  {
   "default": "0",
   "fieldname": "disabled",
   "fieldtype": "Check",
   "hidden": 1,
   "label": "Disabled"
  },
  {
   "fieldname": "mobile_no",
   "fieldtype": "Data",
   "in_list_view": 1,
   "in_standard_filter": 1,
   "label": "Mobile No",
   "unique": 1
  },
  {
   "fetch_from": "customer_primary_contact.email_id",
   "fieldname": "email_id",
   "fieldtype": "Data",
   "in_list_view": 1,
   "label": "Email Id"
  },
  {
   "description": "Additional information regarding the customer.",
   "fieldname": "customer_details",
   "fieldtype": "Text",
   "label": "Customer Details",
   "oldfieldname": "customer_details",
   "oldfieldtype": "Code"
  },
  {
   "default": "0",
   "fieldname": "rating",
   "fieldtype": "Rating",
   "in_list_view": 1,
   "label": "Rating",
   "read_only": 1
  },
  {
   "default": "0",
   "fieldname": "total_feefback",
   "fieldtype": "Int",
   "label": "Total Feedback",
   "read_only": 1
  },
  {
   "default": "0",
   "fieldname": "total_rating",
   "fieldtype": "Float",
   "label": "Total Rating",
   "read_only": 1
  },
  {
   "fieldname": "first_name",
   "fieldtype": "Data",
   "label": "First Name"
  },
  {
   "fieldname": "second_name",
   "fieldtype": "Data",
   "label": "Second Name"
  },
  {
   "bold": 1,
   "fieldname": "full_name",
   "fieldtype": "Data",
   "in_list_view": 1,
   "in_standard_filter": 1,
   "label": "Full Name",
   "no_copy": 1,
   "oldfieldname": "customer_name",
   "oldfieldtype": "Data",
   "search_index": 1
  },
  {
   "default": "0",
   "fieldname": "total_order",
   "fieldtype": "Int",
   "in_list_view": 1,
   "label": "Total Order",
   "read_only": 1
  },
  {
   "fieldname": "per_details",
   "fieldtype": "Section Break",
   "label": "Personal Details"
  },
  {
   "fieldname": "cb_0",
   "fieldtype": "Column Break"
  },
  {
   "fieldname": "order_detail",
   "fieldtype": "Section Break",
   "label": "Order Details"
  },
  {
   "fieldname": "cd_2",
   "fieldtype": "Column Break"
  },
  {
   "fieldname": "cus_add_details",
   "fieldtype": "Section Break",
   "label": "Additional Details "
  }
 ],
 "hide_toolbar": 1,
 "icon": "fa fa-user",
 "links": [],
 "modified": "2020-04-30 14:06:25.098168",
 "modified_by": "Administrator",
 "module": "Profiles",
 "name": "Customer",
 "owner": "Administrator",
 "permissions": [
  {
   "create": 1,
   "delete": 1,
   "email": 1,
   "export": 1,
   "print": 1,
   "read": 1,
   "report": 1,
   "role": "System Manager",
   "share": 1,
   "write": 1
  },
  {
   "delete": 1,
   "email": 1,
   "export": 1,
   "print": 1,
   "read": 1,
   "report": 1,
   "role": "Desk Admin",
   "share": 1,
   "write": 1
  }
 ],
 "search_fields": "full_name,mobile_no,email_id",
 "sort_field": "modified",
 "sort_order": "ASC",
 "title_field": "mobile_no",
 "track_changes": 1
}