{
 "actions": [],
 "autoname": "field:account_manager",
 "creation": "2019-10-21 12:02:25.024294",
 "doctype": "DocType",
 "editable_grid": 1,
 "engine": "InnoDB",
 "field_order": [
  "account_manager",
  "image",
  "sb_personal",
  "first_name",
  "second_name",
  "full_name",
  "mobile_no",
  "provider_services",
  "vendor",
  "cb_0",
  "address",
  "email_id",
  "vh_type",
  "is_online",
  "disabled",
  "base_price",
  "sb_order",
  "rating",
  "total_order",
  "cb_1",
  "total_feefback",
  "total_rating",
  "sb_verification",
  "vehicle_number",
  "vhn_image",
  "att_vhn_image",
  "vhn_image_disp",
  "license_no",
  "license_image",
  "att_license_image",
  "license_image_disp",
  "admin_created",
  "cb_2",
  "em_id",
  "em_id_image",
  "att_em_id_image",
  "em_id_image_disp",
  "visa_no",
  "visa_no_image",
  "att_visa_no_image",
  "visa_no_image_disp",
  "new_reg",
  "sc_info",
  "provider_details"
 ],
 "fields": [
  {
   "fieldname": "image",
   "fieldtype": "Text",
   "hidden": 1,
   "label": "Image",
   "print_hide": 1
  },
  {
   "fieldname": "account_manager",
   "fieldtype": "Link",
   "label": "Account Manager",
   "options": "User",
   "read_only": 1,
   "set_only_once": 1,
   "unique": 1
  },
  {
   "default": "0",
   "fieldname": "disabled",
   "fieldtype": "Check",
   "in_standard_filter": 1,
   "label": "Disabled"
  },
  {
   "description": "Additional information regarding the provider.",
   "fieldname": "provider_details",
   "fieldtype": "Text",
   "label": "Provider Details",
   "oldfieldname": "provider_details",
   "oldfieldtype": "Code"
  },
  {
   "fieldname": "base_price",
   "fieldtype": "Currency",
   "hidden": 1,
   "label": " Base Price",
   "read_only": 1
  },
  {
   "default": "0",
   "fieldname": "is_online",
   "fieldtype": "Check",
   "label": "Is Online",
   "read_only": 1
  },
  {
   "default": "0",
   "fieldname": "rating",
   "fieldtype": "Rating",
   "in_list_view": 1,
   "label": "Rating",
   "read_only": 1
  },
  {
   "default": "0",
   "fieldname": "total_feefback",
   "fieldtype": "Int",
   "label": "Total Feedback",
   "read_only": 1
  },
  {
   "default": "0",
   "fieldname": "total_rating",
   "fieldtype": "Float",
   "label": "Total Rating",
   "read_only": 1
  },
  {
   "fieldname": "vehicle_number",
   "fieldtype": "Data",
   "in_list_view": 1,
   "in_standard_filter": 1,
   "label": "Vehicle Number",
   "unique": 1
  },
  {
   "fieldname": "license_no",
   "fieldtype": "Data",
   "label": " License No",
   "unique": 1
  },
  {
   "fieldname": "license_image",
   "fieldtype": "Text",
   "hidden": 1,
   "label": "License Image base",
   "read_only": 1
  },
  {
   "fieldname": "vhn_image",
   "fieldtype": "Text",
   "hidden": 1,
   "label": "VHN Image",
   "read_only": 1
  },
  {
   "default": "0",
   "fieldname": "admin_created",
   "fieldtype": "Check",
   "hidden": 1,
   "label": "Admin Created",
   "read_only": 1
  },
  {
   "fieldname": "first_name",
   "fieldtype": "Data",
   "label": "First Name",
   "reqd": 1
  },
  {
   "fieldname": "second_name",
   "fieldtype": "Data",
   "label": "Second Name",
   "reqd": 1
  },
  {
   "bold": 1,
   "fieldname": "full_name",
   "fieldtype": "Data",
   "in_list_view": 1,
   "in_standard_filter": 1,
   "label": "Full Name",
   "no_copy": 1,
   "oldfieldname": "provider_name",
   "oldfieldtype": "Data",
   "read_only": 1
  },
  {
   "fieldname": "mobile_no",
   "fieldtype": "Data",
   "in_list_view": 1,
   "in_standard_filter": 1,
   "label": "Mobile No",
   "reqd": 1,
   "unique": 1
  },
  {
   "fieldname": "email_id",
   "fieldtype": "Data",
   "label": "Email Id"
  },
  {
   "fieldname": "vh_type",
   "fieldtype": "Link",
   "in_list_view": 1,
   "in_standard_filter": 1,
   "label": "Vehicle Type",
   "options": "Vehicle Type",
   "reqd": 1
  },
  {
   "fieldname": "em_id_image",
   "fieldtype": "Text",
   "hidden": 1,
   "label": "Emirates  Id Image base",
   "read_only": 1
  },
  {
   "fieldname": "em_id",
   "fieldtype": "Data",
   "in_list_view": 1,
   "in_standard_filter": 1,
   "label": "Emirates Id",
   "unique": 1
  },
  {
   "fieldname": "visa_no_image",
   "fieldtype": "Text",
   "hidden": 1,
   "label": "Visa Number Image base",
   "read_only": 1
  },
  {
   "fieldname": "visa_no",
   "fieldtype": "Data",
   "label": "Visa Number",
   "unique": 1
  },
  {
   "default": "0",
   "fieldname": "total_order",
   "fieldtype": "Int",
   "in_list_view": 1,
   "label": "Total Order",
   "read_only": 1
  },
  {
   "default": "1",
   "fieldname": "new_reg",
   "fieldtype": "Check",
   "hidden": 1,
   "label": "Is New",
   "read_only": 1
  },
  {
   "fieldname": "sb_personal",
   "fieldtype": "Section Break",
   "label": "Personal Details"
  },
  {
   "fieldname": "cb_0",
   "fieldtype": "Column Break"
  },
  {
   "bold": 1,
   "fieldname": "sb_order",
   "fieldtype": "Section Break",
   "label": "Order Details"
  },
  {
   "fieldname": "cb_1",
   "fieldtype": "Column Break"
  },
  {
   "bold": 1,
   "collapsible": 1,
   "fieldname": "sb_verification",
   "fieldtype": "Section Break",
   "label": "Verification Details "
  },
  {
   "bold": 1,
   "collapsible": 1,
   "fieldname": "sc_info",
   "fieldtype": "Section Break",
   "label": "Additional Info"
  },
  {
   "fieldname": "cb_2",
   "fieldtype": "Column Break"
  },
  {
   "fieldname": "address",
   "fieldtype": "Small Text",
   "label": "Address"
  },
  {
   "fieldname": "att_vhn_image",
   "fieldtype": "Attach Image",
   "label": "Vehicle Image"
  },
  {
   "fieldname": "vhn_image_disp",
   "fieldtype": "Image",
   "options": "att_vhn_image"
  },
  {
   "fieldname": "att_license_image",
   "fieldtype": "Attach Image",
   "label": "License Image"
  },
  {
   "fieldname": "license_image_disp",
   "fieldtype": "Image",
   "options": "att_license_image"
  },
  {
   "fieldname": "att_em_id_image",
   "fieldtype": "Attach Image",
   "label": "Emirates  Id Image"
  },
  {
   "fieldname": "em_id_image_disp",
   "fieldtype": "Image",
   "options": "att_em_id_image"
  },
  {
   "fieldname": "att_visa_no_image",
   "fieldtype": "Attach Image",
   "label": "Visa Number Image"
  },
  {
   "fieldname": "visa_no_image_disp",
   "fieldtype": "Image",
   "options": "att_visa_no_image"
  },
  {
   "fieldname": "provider_services",
   "fieldtype": "Table MultiSelect",
   "label": "Provider Services ",
   "options": "Provider Service",
   "reqd": 1
  },
  {
   "fieldname": "vendor",
   "fieldtype": "Link",
   "in_list_view": 1,
   "in_standard_filter": 1,
   "label": "Vendor",
   "options": "Vendor",
   "reqd": 1
  }
 ],
 "hide_toolbar": 1,
 "links": [],
 "modified": "2020-11-23 12:40:28.692982",
 "modified_by": "Administrator",
 "module": "Profiles",
 "name": "Provider",
 "owner": "Administrator",
 "permissions": [
  {
   "create": 1,
   "delete": 1,
   "email": 1,
   "export": 1,
   "print": 1,
   "read": 1,
   "report": 1,
   "role": "System Manager",
   "share": 1,
   "write": 1
  },
  {
   "create": 1,
   "delete": 1,
   "email": 1,
   "export": 1,
   "print": 1,
   "read": 1,
   "report": 1,
   "role": "Sales User",
   "share": 1,
   "write": 1
  },
  {
   "email": 1,
   "export": 1,
   "print": 1,
   "read": 1,
   "report": 1,
   "role": "Purchase User",
   "share": 1,
   "write": 1
  },
  {
   "delete": 1,
   "email": 1,
   "export": 1,
   "print": 1,
   "read": 1,
   "report": 1,
   "role": "Desk Admin",
   "share": 1,
   "write": 1
  }
 ],
 "search_fields": "full_name,mobile_no",
 "show_name_in_global_search": 1,
 "sort_field": "modified",
 "sort_order": "ASC",
 "title_field": "mobile_no",
 "track_changes": 1
}