{
 "actions": [],
 "autoname": "field:provider",
 "creation": "2020-02-19 18:47:40.458547",
 "doctype": "DocType",
 "editable_grid": 1,
 "engine": "InnoDB",
 "field_order": [
  "sb_1",
  "provider",
  "provider_name",
  "cd_2",
  "provider_num",
  "sb_2",
  "app_amt",
  "cb_3",
  "l_re_date",
  "cb_4",
  "l_ap_date"
 ],
 "fields": [
  {
   "default": "0.00",
   "fieldname": "app_amt",
   "fieldtype": "Currency",
   "in_list_view": 1,
   "label": "Total Approved Amount",
   "read_only": 1
  },
  {
   "fieldname": "l_re_date",
   "fieldtype": "Datetime",
   "in_list_view": 1,
   "in_standard_filter": 1,
   "label": "Latest Request Date ",
   "read_only": 1
  },
  {
   "fieldname": "l_ap_date",
   "fieldtype": "Datetime",
   "in_list_view": 1,
   "in_standard_filter": 1,
   "label": "Last Approved Request Date",
   "read_only": 1
  },
  {
   "fetch_from": "provider.full_name",
   "fieldname": "provider_name",
   "fieldtype": "Data",
   "in_list_view": 1,
   "label": "Provider Name",
   "read_only": 1
  },
  {
   "fetch_from": "provider.mobile_no",
   "fieldname": "provider_num",
   "fieldtype": "Data",
   "in_list_view": 1,
   "label": "Provider Mobile Number",
   "read_only": 1
  },
  {
   "fieldname": "sb_1",
   "fieldtype": "Section Break",
   "label": "Provider Details"
  },
  {
   "fieldname": "cd_2",
   "fieldtype": "Column Break"
  },
  {
   "fieldname": "sb_2",
   "fieldtype": "Section Break",
   "label": "Details"
  },
  {
   "fieldname": "cb_3",
   "fieldtype": "Column Break"
  },
  {
   "fieldname": "cb_4",
   "fieldtype": "Column Break"
  },
  {
   "fieldname": "provider",
   "fieldtype": "Link",
   "in_standard_filter": 1,
   "label": "Provider",
   "options": "Provider",
   "reqd": 1,
   "unique": 1
  }
 ],
 "hide_toolbar": 1,
 "links": [],
 "modified": "2020-05-05 21:21:37.586699",
 "modified_by": "Administrator",
 "module": "Earnings",
 "name": "Payment Profile",
 "owner": "Administrator",
 "permissions": [
  {
   "create": 1,
   "delete": 1,
   "email": 1,
   "export": 1,
   "print": 1,
   "read": 1,
   "report": 1,
   "role": "System Manager",
   "share": 1,
   "write": 1
  },
  {
   "delete": 1,
   "email": 1,
   "export": 1,
   "print": 1,
   "read": 1,
   "report": 1,
   "role": "Desk Admin",
   "share": 1,
   "write": 1
  }
 ],
 "sort_field": "modified",
 "sort_order": "DESC",
 "track_changes": 1
}