{
 "creation": "2019-11-02 15:49:35.403659",
 "doctype": "DocType",
 "editable_grid": 1,
 "engine": "InnoDB",
 "field_order": [
  "pro_service"
 ],
 "fields": [
  {
   "fieldname": "pro_service",
   "fieldtype": "Link",
   "in_list_view": 1,
   "label": "Provider Service",
   "options": "Services",
   "reqd": 1
  }
 ],
 "modified": "2019-11-02 15:49:35.403659",
 "modified_by": "Administrator",
 "module": "Profiles",
 "name": "Provider Service",
 "owner": "Administrator",
 "permissions": [
  {
   "create": 1,
   "delete": 1,
   "email": 1,
   "export": 1,
   "print": 1,
   "read": 1,
   "report": 1,
   "role": "System Manager",
   "share": 1,
   "write": 1
  }
 ],
 "sort_field": "modified",
 "sort_order": "DESC"
}