{
 "creation": "2019-11-21 16:26:55.906768",
 "doctype": "DocType",
 "editable_grid": 1,
 "engine": "InnoDB",
 "field_order": [
  "sender",
  "title",
  "recipient",
  "message",
  "order_table",
  "order_name",
  "order_reschedule",
  "noti_type",
  "sender_name"
 ],
 "fields": [
  {
   "fieldname": "sender",
   "fieldtype": "Link",
   "in_list_view": 1,
   "label": "Sender",
   "options": "User",
   "reqd": 1
  },
  {
   "fieldname": "recipient",
   "fieldtype": "Data",
   "in_list_view": 1,
   "label": "Recipient",
   "options": "User",
   "reqd": 1
  },
  {
   "fieldname": "message",
   "fieldtype": "Data",
   "in_list_view": 1,
   "label": "Message ",
   "reqd": 1
  },
  {
   "fieldname": "order_table",
   "fieldtype": "Data",
   "label": "Order Table",
   "options": "DocType"
  },
  {
   "fieldname": "order_reschedule",
   "fieldtype": "Link",
   "label": "Order Reschedule",
   "options": "Order Reschedule"
  },
  {
   "default": "Order",
   "fieldname": "noti_type",
   "fieldtype": "Select",
   "label": "Notification Type",
   "options": "Order\nReschedule"
  },
  {
   "fetch_from": "sender.full_name",
   "fieldname": "sender_name",
   "fieldtype": "Data",
   "label": "Sender Name"
  },
  {
   "fieldname": "order_name",
   "fieldtype": "Data",
   "label": "Order",
   "options": "order_table",
   "reqd": 1
  },
  {
   "fieldname": "title",
   "fieldtype": "Data",
   "label": "Title"
  }
 ],
 "modified": "2019-12-10 19:35:44.479063",
 "modified_by": "Administrator",
 "module": "Notifications",
 "name": "App Notifications",
 "owner": "Administrator",
 "permissions": [
  {
   "create": 1,
   "delete": 1,
   "email": 1,
   "export": 1,
   "print": 1,
   "read": 1,
   "report": 1,
   "role": "System Manager",
   "share": 1,
   "write": 1
  },
  {
   "create": 1,
   "delete": 1,
   "email": 1,
   "export": 1,
   "print": 1,
   "read": 1,
   "report": 1,
   "role": "Purchase User",
   "share": 1,
   "write": 1
  },
  {
   "create": 1,
   "delete": 1,
   "email": 1,
   "export": 1,
   "print": 1,
   "read": 1,
   "report": 1,
   "role": "Sales User",
   "share": 1,
   "write": 1
  }
 ],
 "quick_entry": 1,
 "sort_field": "modified",
 "sort_order": "DESC",
 "track_changes": 1
}