{
 "actions": [],
 "autoname": "field:service_id",
 "creation": "2020-09-04 15:02:20.734891",
 "doctype": "DocType",
 "editable_grid": 1,
 "engine": "InnoDB",
 "field_order": [
  "service_id",
  "service_name",
  "service_desc",
  "image",
  "selected_image",
  "price_type",
  "priority"
 ],
 "fields": [
  {
   "fieldname": "service_name",
   "fieldtype": "Data",
   "in_list_view": 1,
   "label": " Service Name",
   "reqd": 1,
   "unique": 1
  },
  {
   "fieldname": "service_desc",
   "fieldtype": "Text",
   "label": "Service Desc"
  },
  {
   "fieldname": "image",
   "fieldtype": "Attach Image",
   "label": "Image",
   "reqd": 1
  },
  {
   "fieldname": "service_id",
   "fieldtype": "Data",
   "label": "Service Id",
   "reqd": 1,
   "unique": 1
  },
  {
   "fieldname": "price_type",
   "fieldtype": "Select",
   "label": "Pricing Type ",
   "options": "A - B\nA - B - C",
   "reqd": 1
  },
  {
   "fieldname": "selected_image",
   "fieldtype": "Attach Image",
   "label": "Selected Image",
   "reqd": 1
  },
  {
   "fieldname": "priority",
   "fieldtype": "Int",
   "label": "Priority"
  }
 ],
 "hide_toolbar": 1,
 "image_field": "image",
 "links": [],
 "modified": "2020-12-09 20:08:08.093155",
 "modified_by": "Administrator",
 "module": "Services",
 "name": "Services",
 "owner": "Administrator",
 "permissions": [
  {
   "create": 1,
   "delete": 1,
   "email": 1,
   "export": 1,
   "print": 1,
   "read": 1,
   "report": 1,
   "role": "System Manager",
   "share": 1,
   "write": 1
  },
  {
   "email": 1,
   "export": 1,
   "print": 1,
   "read": 1,
   "report": 1,
   "role": "Purchase User",
   "share": 1
  },
  {
   "email": 1,
   "export": 1,
   "print": 1,
   "read": 1,
   "report": 1,
   "role": "Sales User",
   "share": 1
  },
  {
   "create": 1,
   "delete": 1,
   "email": 1,
   "export": 1,
   "print": 1,
   "read": 1,
   "report": 1,
   "role": "Desk Admin",
   "share": 1,
   "write": 1
  },
  {
   "create": 1,
   "delete": 1,
   "email": 1,
   "export": 1,
   "print": 1,
   "read": 1,
   "report": 1,
   "role": "Administrator",
   "share": 1,
   "write": 1
  }
 ],
 "quick_entry": 1,
 "sort_field": "modified",
 "sort_order": "DESC"
}