{
 "actions": [],
 "autoname": "field:coupon_code",
 "creation": "2019-10-29 11:34:26.338836",
 "doctype": "DocType",
 "editable_grid": 1,
 "engine": "InnoDB",
 "field_order": [
  "coupon_code",
  "cb_2",
  "is_active",
  "sb_settings",
  "title",
  "cb_5",
  "type",
  "cb_1",
  "dis_type",
  "cb_7",
  "region",
  "sb_validity",
  "start_date",
  "cd_3",
  "end_date",
  "sb_constrains",
  "disc_per",
  "max_disc_amt",
  "cb_6",
  "max_usage",
  "max_user",
  "sb_attachments",
  "disc_img",
  "img_disp",
  "cb_4",
  "re_link",
  "sb_stat",
  "appl_users",
  "cd_8",
  "dis_amt"
 ],
 "fields": [
  {
   "default": "Offer",
   "fieldname": "type",
   "fieldtype": "Select",
   "label": "Type",
   "options": "Offer\nAdd"
  },
  {
   "fieldname": "start_date",
   "fieldtype": "Date",
   "in_list_view": 1,
   "in_standard_filter": 1,
   "label": "Start Date",
   "reqd": 1
  },
  {
   "fieldname": "end_date",
   "fieldtype": "Date",
   "in_list_view": 1,
   "in_standard_filter": 1,
   "label": "End Date",
   "reqd": 1
  },
  {
   "fieldname": "disc_per",
   "fieldtype": "Percent",
   "in_list_view": 1,
   "label": "Discount Percentage",
   "reqd": 1
  },
  {
   "default": "0",
   "description": "\" 0 \" will be considered as \"no limit\"",
   "fieldname": "max_disc_amt",
   "fieldtype": "Currency",
   "label": "Maximum Discount Amount"
  },
  {
   "fieldname": "disc_img",
   "fieldtype": "Attach Image",
   "label": "image"
  },
  {
   "fetch_from": "naming_series",
   "fetch_if_empty": 1,
   "fieldname": "title",
   "fieldtype": "Data",
   "label": "Title",
   "reqd": 1
  },
  {
   "default": "1",
   "fieldname": "is_active",
   "fieldtype": "Check",
   "label": "Is Active",
   "read_only": 1
  },
  {
   "fieldname": "coupon_code",
   "fieldtype": "Data",
   "in_filter": 1,
   "in_list_view": 1,
   "in_preview": 1,
   "in_standard_filter": 1,
   "label": "Coupon Code",
   "reqd": 1,
   "unique": 1
  },
  {
   "default": "Tiles",
   "fieldname": "dis_type",
   "fieldtype": "Select",
   "label": "Display Type",
   "options": "Banner\nTiles"
  },
  {
   "fieldname": "re_link",
   "fieldtype": "Data",
   "label": "Redirect Link"
  },
  {
   "fieldname": "sb_settings",
   "fieldtype": "Section Break",
   "label": "Settings "
  },
  {
   "fieldname": "cb_1",
   "fieldtype": "Column Break"
  },
  {
   "fieldname": "cb_2",
   "fieldtype": "Column Break"
  },
  {
   "fieldname": "sb_validity",
   "fieldtype": "Section Break",
   "label": "Validity Period"
  },
  {
   "fieldname": "cd_3",
   "fieldtype": "Column Break"
  },
  {
   "fieldname": "sb_constrains",
   "fieldtype": "Section Break",
   "label": "Constrains "
  },
  {
   "collapsible": 1,
   "fieldname": "sb_attachments",
   "fieldtype": "Section Break",
   "label": "Attachments "
  },
  {
   "fieldname": "cb_4",
   "fieldtype": "Column Break",
   "width": "30%"
  },
  {
   "fieldname": "cb_5",
   "fieldtype": "Column Break"
  },
  {
   "description": "Number of users that can apply this offer.\n\" 0 \" will be considered as \"no limit\"",
   "fieldname": "max_usage",
   "fieldtype": "Int",
   "label": "Maximum Usage"
  },
  {
   "default": "0",
   "description": "Number of  times an user can apply this offer.\n\" 0 \" will be considered as \"no limit\"",
   "fieldname": "max_user",
   "fieldtype": "Int",
   "label": "Maximum Usage per User"
  },
  {
   "fieldname": "cb_6",
   "fieldtype": "Column Break"
  },
  {
   "collapsible": 1,
   "depends_on": "eval:!doc.__islocal",
   "description": "After Successful Completion of an Order ",
   "fieldname": "sb_stat",
   "fieldtype": "Section Break",
   "label": "Statics"
  },
  {
   "default": "0",
   "depends_on": "eval:!doc.__islocal",
   "fieldname": "appl_users",
   "fieldtype": "Int",
   "in_list_view": 1,
   "label": "Total Applied Users",
   "read_only": 1
  },
  {
   "default": "0",
   "depends_on": "eval:!doc.__islocal",
   "fieldname": "dis_amt",
   "fieldtype": "Float",
   "label": "Total Discounted Amount ",
   "read_only": 1
  },
  {
   "description": "If empty then it applicable to all regions ",
   "fieldname": "region",
   "fieldtype": "Link",
   "label": "Region",
   "options": "Service Regions Settings"
  },
  {
   "fieldname": "cb_7",
   "fieldtype": "Column Break"
  },
  {
   "fieldname": "cd_8",
   "fieldtype": "Column Break"
  },
  {
   "columns": 3,
   "fieldname": "img_disp",
   "fieldtype": "Image",
   "label": "Image Display",
   "options": "disc_img"
  }
 ],
 "hide_toolbar": 1,
 "links": [],
 "modified": "2020-05-06 05:46:10.708350",
 "modified_by": "Administrator",
 "module": "Discounts And Coopans",
 "name": "Offers",
 "owner": "Administrator",
 "permissions": [
  {
   "create": 1,
   "delete": 1,
   "email": 1,
   "export": 1,
   "print": 1,
   "read": 1,
   "report": 1,
   "role": "System Manager",
   "share": 1,
   "write": 1
  },
  {
   "email": 1,
   "export": 1,
   "print": 1,
   "read": 1,
   "report": 1,
   "role": "Sales User",
   "share": 1
  },
  {
   "email": 1,
   "export": 1,
   "print": 1,
   "read": 1,
   "report": 1,
   "role": "Purchase User",
   "share": 1
  },
  {
   "create": 1,
   "delete": 1,
   "email": 1,
   "export": 1,
   "print": 1,
   "read": 1,
   "report": 1,
   "role": "Desk Admin",
   "share": 1,
   "write": 1
  }
 ],
 "search_fields": "coupon_code,title",
 "sort_field": "modified",
 "sort_order": "DESC",
 "title_field": "title",
 "track_changes": 1
}